ActsPixelClusterizationAlg                                        INFO Clusterization statistics
|----------|------------|
| RDOs     |    3423993 |
| Clusters |    1165578 |
|----------|------------|
ActsStripClusterizationAlg                                        INFO Clusterization statistics
|----------|------------|
| RDOs     |    1345365 |
| Clusters |    1081478 |
|----------|------------|
ActsPixelSpacePointFormationAlg                                   INFO Space Point Formation statistics
|--------------|------------|
| Clusters     |    1165578 |
| Space Points |    1165578 |
|--------------|------------|
ActsStripSpacePointFormationAlg                                   INFO Space Point Formation statistics
|----------------------|------------|
| Clusters             |    1081478 |
| Space Points         |     325456 |
| Overlap Space Points |      94491 |
|----------------------|------------|
ActsPixelSeedingAlg                                               INFO Seed statistics
|---------------------|------------|
| Spacepoints         |    1165578 |
| Seeds               |     123542 |
| No track parameters |          0 |
|---------------------|------------|
ActsStripSeedingAlg                                               INFO Seed statistics
|---------------------|------------|
| Spacepoints         |     419947 |
| Seeds               |      24791 |
| No track parameters |          0 |
|---------------------|------------|
ActsTrackFindingAlg                                               INFO statistics
|-----------------------------------|------------|------------|------------|
|                           All eta | PPP        | SSS        | ALL        |
|-----------------------------------|------------|------------|------------|
| Input seeds                       |     123542 |      24791 |     148333 |
| No track parameters               |          0 |          0 |          0 |
| Used   seeds                      |      78111 |      15644 |      93755 |
| Cannot find track                 |      63305 |      11871 |      75176 |
| Duplicate seeds                   |      45431 |       9147 |      54578 |
| CKF tracks                        |      14806 |       3773 |      18579 |
| Rejected refined parameters       |          0 |          0 |          0 |
| selected tracks                   |      13385 |        808 |      14193 |
| Stopped tracks reaching max holes |      60891 |      11377 |      72268 |
| Seeds with more than one branch   |          0 |          0 |          0 |
| Tracks failing second CKF         |         11 |        186 |        197 |
| Stopped tracks below pT cut       |       2414 |        494 |       2908 |
| Stopped tracks above max eta      |          0 |          0 |          0 |
|-----------------------------------|------------|------------|------------|
ActsTrackFindingAlg                                               INFO Ratios
|------------------------------------------|------------|------------|------------|
|                                          | PPP        | SSS        | ALL        |
|------------------------------------------|------------|------------|------------|
| failed / seeds                           |   0.512417 |   0.478843 |   0.506806 |
| duplication / seeds                      |   0.367737 |   0.368965 |   0.367942 |
| Rejected refined params / seeds          |          0 |          0 |          0 |
| selected / CKF tracks                    |   0.904025 |   0.214153 |   0.763927 |
| selected tracks / used seeds             |   0.171359 |  0.0516492 |   0.151384 |
| branched tracks / used seeds             |          0 |          0 |          0 |
| no 2nd CKF / CKF tracks                  | 0.000742942 |  0.0492976 |  0.0106034 |
|------------------------------------------|------------|------------|------------|
| selected / CKF tracks           0.0- 0.5 |   0.890205 |    0.11658 |   0.709443 |
|                                 0.5- 1.0 |   0.913255 |   0.252874 |   0.737646 |
|                                 1.0- 1.5 |    0.88605 |   0.212687 |   0.704133 |
|                                 1.5- 2.0 |   0.793103 |   0.227517 |   0.557864 |
|                                 2.0- 2.5 |   0.943406 |   0.214981 |   0.698693 |
|                                 2.5- 3.0 |   0.882987 |          0 |   0.882987 |
|                                 3.0- 3.5 |   0.942103 |          0 |   0.942103 |
|                                 3.5-+inf |   0.960328 |          0 |   0.960328 |
|------------------------------------------|------------|------------|------------|
ActsPrdAssociationAlg                                             INFO Prd Map statistics
|-----------------------|------------|
| N. Tracks             |       9546 |
| N. Pixel Measurements |     102072 |
| N. Strip Measurements |      40037 |
| N. Hgtd Measurements  |          0 |
|-----------------------|------------|
ActsLargeRadiusPixelClusterPreparationAlg                         INFO Data Prep statistics
|---------|------------|
| Inputs  |    1165578 |
| Outputs |    1063578 |
|---------|------------|
ActsLargeRadiusStripClusterPreparationAlg                         INFO Data Prep statistics
|---------|------------|
| Inputs  |    1081478 |
| Outputs |    1041476 |
|---------|------------|
ActsLargeRadiusStripSpacePointPreparationAlg                      INFO Data Prep statistics
|---------|------------|
| Inputs  |     325456 |
| Outputs |     303593 |
|---------|------------|
ActsLargeRadiusStripOv...pSpacePointPreparationAlg                INFO Data Prep statistics
|---------|------------|
| Inputs  |      94491 |
| Outputs |      88168 |
|---------|------------|
ActsLargeRadiusStripSeedingAlg                                    INFO Seed statistics
|---------------------|------------|
| Spacepoints         |     391761 |
| Seeds               |       9688 |
| No track parameters |          0 |
|---------------------|------------|
ActsLargeRadiusTrackFindingAlg                                    INFO statistics
|-----------------------------------|------------|------------|
|                           All eta | SSS        | ALL        |
|-----------------------------------|------------|------------|
| Input seeds                       |       9688 |       9688 |
| No track parameters               |          0 |          0 |
| Used   seeds                      |       9484 |       9484 |
| Cannot find track                 |       8548 |       8548 |
| Duplicate seeds                   |        204 |        204 |
| CKF tracks                        |        936 |        936 |
| Rejected refined parameters       |          0 |          0 |
| selected tracks                   |        123 |        123 |
| Stopped tracks reaching max holes |       6662 |       6662 |
| Seeds with more than one branch   |          0 |          0 |
| Tracks failing second CKF         |         30 |         30 |
| Stopped tracks below pT cut       |       1886 |       1886 |
| Stopped tracks above max eta      |          0 |          0 |
|-----------------------------------|------------|------------|
ActsLargeRadiusTrackFindingAlg                                    INFO Ratios
|------------------------------------------|------------|------------|
|                                          | SSS        | ALL        |
|------------------------------------------|------------|------------|
| failed / seeds                           |   0.882329 |   0.882329 |
| duplication / seeds                      |   0.021057 |   0.021057 |
| Rejected refined params / seeds          |          0 |          0 |
| selected / CKF tracks                    |    0.13141 |    0.13141 |
| selected tracks / used seeds             |  0.0129692 |  0.0129692 |
| branched tracks / used seeds             |          0 |          0 |
| no 2nd CKF / CKF tracks                  |  0.0320513 |  0.0320513 |
|------------------------------------------|------------|------------|
| selected / CKF tracks           0.0- 0.5 |   0.169014 |   0.169014 |
|                                 0.5- 1.0 |   0.214286 |   0.214286 |
|                                 1.0- 1.5 |   0.217391 |   0.217391 |
|                                 1.5- 2.0 |   0.128788 |   0.128788 |
|                                 2.0- 2.5 |  0.0750853 |  0.0750853 |
|                                 2.5- 3.0 |          0 |          0 |
|                                 3.0- 3.5 |          0 |          0 |
|                                 3.5-+inf |          0 |          0 |
|------------------------------------------|------------|------------|
ActsLargeRadiusPrdAssociationAlg                                  INFO Prd Map statistics
|-----------------------|------------|
| N. Tracks             |         92 |
| N. Pixel Measurements |        471 |
| N. Strip Measurements |        872 |
| N. Hgtd Measurements  |          0 |
|-----------------------|------------|
ActsConversionPixelClusterPreparationAlg                          INFO Data Prep statistics
|---------|------------|
| Inputs  |    1165578 |
| Outputs |      27114 |
|---------|------------|
ActsConversionStripClusterPreparationAlg                          INFO Data Prep statistics
|---------|------------|
| Inputs  |    1081478 |
| Outputs |      15516 |
|---------|------------|
ActsConversionStripSpacePointPreparationAlg                       INFO Data Prep statistics
|---------|------------|
| Inputs  |     325456 |
| Outputs |       4502 |
|---------|------------|
ActsConversionStripSeedingAlg                                     INFO Seed statistics
|---------------------|------------|
| Spacepoints         |       4502 |
| Seeds               |         71 |
| No track parameters |          0 |
|---------------------|------------|
ActsConversionTrackFindingAlg                                     INFO statistics
|-----------------------------------|------------|------------|
|                           All eta | SSS        | ALL        |
|-----------------------------------|------------|------------|
| Input seeds                       |         71 |         71 |
| No track parameters               |          0 |          0 |
| Used   seeds                      |         71 |         71 |
| Cannot find track                 |         54 |         54 |
| Duplicate seeds                   |          0 |          0 |
| CKF tracks                        |         17 |         17 |
| Rejected refined parameters       |          0 |          0 |
| selected tracks                   |          0 |          0 |
| Stopped tracks reaching max holes |         46 |         46 |
| Seeds with more than one branch   |          0 |          0 |
| Tracks failing second CKF         |          0 |          0 |
| Stopped tracks below pT cut       |          8 |          8 |
| Stopped tracks above max eta      |          0 |          0 |
|-----------------------------------|------------|------------|
ActsConversionTrackFindingAlg                                     INFO Ratios
|------------------------------------------|------------|------------|
|                                          | SSS        | ALL        |
|------------------------------------------|------------|------------|
| failed / seeds                           |   0.760563 |   0.760563 |
| duplication / seeds                      |          0 |          0 |
| Rejected refined params / seeds          |          0 |          0 |
| selected / CKF tracks                    |          0 |          0 |
| selected tracks / used seeds             |          0 |          0 |
| branched tracks / used seeds             |          0 |          0 |
| no 2nd CKF / CKF tracks                  |          0 |          0 |
|------------------------------------------|------------|------------|
| selected / CKF tracks           0.0- 0.5 |          0 |          0 |
|                                 0.5- 1.0 |          0 |          0 |
|                                 1.0- 1.5 |          0 |          0 |
|                                 1.5- 2.0 |          0 |          0 |
|                                 2.0- 2.5 |          0 |          0 |
|                                 2.5- 3.0 |          0 |          0 |
|                                 3.0- 3.5 |          0 |          0 |
|                                 3.5-+inf |          0 |          0 |
|------------------------------------------|------------|------------|
ActsConversionPrdAssociationAlg                                   INFO Prd Map statistics
|-----------------------|------------|
| N. Tracks             |          0 |
| N. Pixel Measurements |          0 |
| N. Strip Measurements |          0 |
| N. Hgtd Measurements  |          0 |
|-----------------------|------------|
ActsLowPtPixelClusterPreparationAlg                               INFO Data Prep statistics
|---------|------------|
| Inputs  |    1165578 |
| Outputs |    1063108 |
|---------|------------|
ActsLowPtStripClusterPreparationAlg                               INFO Data Prep statistics
|---------|------------|
| Inputs  |    1081478 |
| Outputs |    1040604 |
|---------|------------|
ActsLowPtPixelSpacePointPreparationAlg                            INFO Data Prep statistics
|---------|------------|
| Inputs  |    1165578 |
| Outputs |    1063108 |
|---------|------------|
ActsLowPtStripSpacePointPreparationAlg                            INFO Data Prep statistics
|---------|------------|
| Inputs  |     325456 |
| Outputs |     303131 |
|---------|------------|
ActsLowPtStripOverlapSpacePointPreparationAlg                     INFO Data Prep statistics
|---------|------------|
| Inputs  |      94491 |
| Outputs |      88009 |
|---------|------------|
ActsLowPtPixelSeedingAlg                                          INFO Seed statistics
|---------------------|------------|
| Spacepoints         |    1063108 |
| Seeds               |      46860 |
| No track parameters |          0 |
|---------------------|------------|
ActsLowPtStripSeedingAlg                                          INFO Seed statistics
|---------------------|------------|
| Spacepoints         |     391140 |
| Seeds               |       9159 |
| No track parameters |          0 |
|---------------------|------------|
ActsLowPtTrackFindingAlg                                          INFO statistics
|-----------------------------------|------------|------------|------------|
|                           All eta | PPP        | SSS        | ALL        |
|-----------------------------------|------------|------------|------------|
| Input seeds                       |      46860 |       9159 |      56019 |
| No track parameters               |          0 |          0 |          0 |
| Used   seeds                      |      46051 |       8834 |      54885 |
| Cannot find track                 |      44917 |       7118 |      52035 |
| Duplicate seeds                   |        809 |        325 |       1134 |
| CKF tracks                        |       1134 |       1716 |       2850 |
| Rejected refined parameters       |          0 |          0 |          0 |
| selected tracks                   |        620 |         44 |        664 |
| Stopped tracks reaching max holes |      44475 |       7076 |      51551 |
| Seeds with more than one branch   |          0 |          0 |          0 |
| Tracks failing second CKF         |          0 |         71 |         71 |
| Stopped tracks below pT cut       |        442 |         42 |        484 |
| Stopped tracks above max eta      |          0 |          0 |          0 |
|-----------------------------------|------------|------------|------------|
ActsLowPtTrackFindingAlg                                          INFO Ratios
|------------------------------------------|------------|------------|------------|
|                                          | PPP        | SSS        | ALL        |
|------------------------------------------|------------|------------|------------|
| failed / seeds                           |   0.958536 |   0.777159 |   0.928881 |
| duplication / seeds                      |  0.0172642 |  0.0354842 |  0.0202431 |
| Rejected refined params / seeds          |          0 |          0 |          0 |
| selected / CKF tracks                    |   0.546737 |   0.025641 |   0.232982 |
| selected tracks / used seeds             |  0.0134633 | 0.00498076 |   0.012098 |
| branched tracks / used seeds             |          0 |          0 |          0 |
| no 2nd CKF / CKF tracks                  |          0 |  0.0413753 |  0.0249123 |
|------------------------------------------|------------|------------|------------|
| selected / CKF tracks           0.0- 0.5 |   0.833333 |          0 |       0.36 |
|                                 0.5- 1.0 |   0.965909 |  0.0215827 |   0.387665 |
|                                 1.0- 1.5 |   0.948905 |  0.0701754 |   0.461039 |
|                                 1.5- 2.0 |   0.923077 |  0.0409712 |   0.332317 |
|                                 2.0- 2.5 |  0.0657895 | 0.00330579 |   0.010279 |
|                                 2.5- 3.0 |  0.0131004 |          0 |  0.0131004 |
|                                 3.0- 3.5 |  0.0210526 |          0 |  0.0210526 |
|                                 3.5-+inf |  0.0657895 |          0 |  0.0657895 |
|------------------------------------------|------------|------------|------------|
ActsLowPtPrdAssociationAlg                                        INFO Prd Map statistics
|-----------------------|------------|
| N. Tracks             |        507 |
| N. Pixel Measurements |       3831 |
| N. Strip Measurements |       4199 |
| N. Hgtd Measurements  |          0 |
|-----------------------|------------|
