ActsPixelClusterizationAlg                                        INFO Clusterization statistics
|----------|------------|
| RDOs     |    3423993 |
| Clusters |    1165578 |
|----------|------------|
ActsStripClusterizationAlg                                        INFO Clusterization statistics
|----------|------------|
| RDOs     |    1345365 |
| Clusters |    1081478 |
|----------|------------|
ActsHgtdClusterizationAlg                                         INFO Clusterization statistics
|----------|------------|
| RDOs     |     341404 |
| Clusters |     341404 |
|----------|------------|
ActsPixelSpacePointFormationAlg                                   INFO Space Point Formation statistics
|--------------|------------|
| Clusters     |    1165578 |
| Space Points |    1165578 |
|--------------|------------|
ActsStripSpacePointFormationAlg                                   INFO Space Point Formation statistics
|----------------------|------------|
| Clusters             |    1081478 |
| Space Points         |     325456 |
| Overlap Space Points |      94491 |
|----------------------|------------|
ActsPixelSeedingAlg                                               INFO Seed statistics
|---------------------|------------|
| Spacepoints         |    1165578 |
| Seeds               |     123542 |
| No track parameters |          0 |
|---------------------|------------|
ActsStripSeedingAlg                                               INFO Seed statistics
|---------------------|------------|
| Spacepoints         |     419947 |
| Seeds               |      24791 |
| No track parameters |          0 |
|---------------------|------------|
ActsTrackFindingAlg                                               INFO statistics
|-----------------------------------|------------|------------|------------|
|                           All eta | PPP        | SSS        | ALL        |
|-----------------------------------|------------|------------|------------|
| Input seeds                       |     123542 |      24791 |     148333 |
| No track parameters               |          0 |          0 |          0 |
| Used   seeds                      |      78102 |      15644 |      93746 |
| Cannot find track                 |      63276 |      11862 |      75138 |
| Duplicate seeds                   |      45440 |       9147 |      54587 |
| CKF tracks                        |      14826 |       3782 |      18608 |
| Rejected refined parameters       |          0 |          0 |          0 |
| selected tracks                   |      13391 |        808 |      14199 |
| Stopped tracks reaching max holes |      60862 |      11367 |      72229 |
| Seeds with more than one branch   |          0 |          0 |          0 |
| Tracks failing second CKF         |         11 |        186 |        197 |
| Stopped tracks below pT cut       |       2414 |        495 |       2909 |
| Stopped tracks above max eta      |          0 |          0 |          0 |
|-----------------------------------|------------|------------|------------|
ActsTrackFindingAlg                                               INFO Ratios
|------------------------------------------|------------|------------|------------|
|                                          | PPP        | SSS        | ALL        |
|------------------------------------------|------------|------------|------------|
| failed / seeds                           |   0.512182 |    0.47848 |   0.506549 |
| duplication / seeds                      |    0.36781 |   0.368965 |   0.368003 |
| Rejected refined params / seeds          |          0 |          0 |          0 |
| selected / CKF tracks                    |   0.903211 |   0.213644 |   0.763059 |
| selected tracks / used seeds             |   0.171455 |  0.0516492 |   0.151462 |
| branched tracks / used seeds             |          0 |          0 |          0 |
| no 2nd CKF / CKF tracks                  | 0.00074194 |  0.0491803 |  0.0105868 |
|------------------------------------------|------------|------------|------------|
| selected / CKF tracks           0.0- 0.5 |   0.890205 |    0.11658 |   0.709443 |
|                                 0.5- 1.0 |   0.913255 |   0.252874 |   0.737646 |
|                                 1.0- 1.5 |    0.88605 |   0.212687 |   0.704133 |
|                                 1.5- 2.0 |   0.793103 |   0.227517 |   0.557864 |
|                                 2.0- 2.5 |   0.943406 |    0.21332 |   0.696871 |
|                                 2.5- 3.0 |   0.882635 |          0 |   0.882282 |
|                                 3.0- 3.5 |   0.936117 |          0 |   0.936117 |
|                                 3.5-+inf |   0.960328 |          0 |   0.960328 |
|------------------------------------------|------------|------------|------------|
ActsPrdAssociationAlg                                             INFO Prd Map statistics
|-----------------------|------------|
| N. Tracks             |       9550 |
| N. Pixel Measurements |     102122 |
| N. Strip Measurements |      40042 |
| N. Hgtd Measurements  |         23 |
|-----------------------|------------|
ActsLargeRadiusPixelClusterPreparationAlg                         INFO Data Prep statistics
|---------|------------|
| Inputs  |    1165578 |
| Outputs |    1063528 |
|---------|------------|
ActsLargeRadiusStripClusterPreparationAlg                         INFO Data Prep statistics
|---------|------------|
| Inputs  |    1081478 |
| Outputs |    1041471 |
|---------|------------|
ActsLargeRadiusHgtdClusterPreparationAlg                          INFO Data Prep statistics
|---------|------------|
| Inputs  |     341404 |
| Outputs |     341381 |
|---------|------------|
ActsLargeRadiusStripSpacePointPreparationAlg                      INFO Data Prep statistics
|---------|------------|
| Inputs  |     325456 |
| Outputs |     303593 |
|---------|------------|
ActsLargeRadiusStripOv...pSpacePointPreparationAlg                INFO Data Prep statistics
|---------|------------|
| Inputs  |      94491 |
| Outputs |      88164 |
|---------|------------|
ActsLargeRadiusStripSeedingAlg                                    INFO Seed statistics
|---------------------|------------|
| Spacepoints         |     391757 |
| Seeds               |       9687 |
| No track parameters |          0 |
|---------------------|------------|
ActsLargeRadiusTrackFindingAlg                                    INFO statistics
|-----------------------------------|------------|------------|
|                           All eta | SSS        | ALL        |
|-----------------------------------|------------|------------|
| Input seeds                       |       9687 |       9687 |
| No track parameters               |          0 |          0 |
| Used   seeds                      |       9483 |       9483 |
| Cannot find track                 |       8539 |       8539 |
| Duplicate seeds                   |        204 |        204 |
| CKF tracks                        |        944 |        944 |
| Rejected refined parameters       |          0 |          0 |
| selected tracks                   |        123 |        123 |
| Stopped tracks reaching max holes |       6654 |       6654 |
| Seeds with more than one branch   |          0 |          0 |
| Tracks failing second CKF         |         30 |         30 |
| Stopped tracks below pT cut       |       1885 |       1885 |
| Stopped tracks above max eta      |          0 |          0 |
|-----------------------------------|------------|------------|
ActsLargeRadiusTrackFindingAlg                                    INFO Ratios
|------------------------------------------|------------|------------|
|                                          | SSS        | ALL        |
|------------------------------------------|------------|------------|
| failed / seeds                           |   0.881491 |   0.881491 |
| duplication / seeds                      |  0.0210592 |  0.0210592 |
| Rejected refined params / seeds          |          0 |          0 |
| selected / CKF tracks                    |   0.130297 |   0.130297 |
| selected tracks / used seeds             |  0.0129706 |  0.0129706 |
| branched tracks / used seeds             |          0 |          0 |
| no 2nd CKF / CKF tracks                  |  0.0317797 |  0.0317797 |
|------------------------------------------|------------|------------|
| selected / CKF tracks           0.0- 0.5 |   0.169014 |   0.169014 |
|                                 0.5- 1.0 |   0.214286 |   0.214286 |
|                                 1.0- 1.5 |   0.217391 |   0.217391 |
|                                 1.5- 2.0 |   0.128788 |   0.128788 |
|                                 2.0- 2.5 |  0.0730897 |  0.0730897 |
|                                 2.5- 3.0 |          0 |          0 |
|                                 3.0- 3.5 |          0 |          0 |
|                                 3.5-+inf |          0 |          0 |
|------------------------------------------|------------|------------|
ActsLargeRadiusPrdAssociationAlg                                  INFO Prd Map statistics
|-----------------------|------------|
| N. Tracks             |         92 |
| N. Pixel Measurements |        471 |
| N. Strip Measurements |        872 |
| N. Hgtd Measurements  |          1 |
|-----------------------|------------|
ActsConversionPixelClusterPreparationAlg                          INFO Data Prep statistics
|---------|------------|
| Inputs  |    1165578 |
| Outputs |      27114 |
|---------|------------|
ActsConversionStripClusterPreparationAlg                          INFO Data Prep statistics
|---------|------------|
| Inputs  |    1081478 |
| Outputs |      15516 |
|---------|------------|
ActsConversionHgtdClusterPreparationAlg                           INFO Data Prep statistics
|---------|------------|
| Inputs  |     341404 |
| Outputs |     341380 |
|---------|------------|
ActsConversionStripSpacePointPreparationAlg                       INFO Data Prep statistics
|---------|------------|
| Inputs  |     325456 |
| Outputs |       4502 |
|---------|------------|
ActsConversionStripSeedingAlg                                     INFO Seed statistics
|---------------------|------------|
| Spacepoints         |       4502 |
| Seeds               |         71 |
| No track parameters |          0 |
|---------------------|------------|
ActsConversionTrackFindingAlg                                     INFO statistics
|-----------------------------------|------------|------------|
|                           All eta | SSS        | ALL        |
|-----------------------------------|------------|------------|
| Input seeds                       |         71 |         71 |
| No track parameters               |          0 |          0 |
| Used   seeds                      |         71 |         71 |
| Cannot find track                 |         54 |         54 |
| Duplicate seeds                   |          0 |          0 |
| CKF tracks                        |         17 |         17 |
| Rejected refined parameters       |          0 |          0 |
| selected tracks                   |          0 |          0 |
| Stopped tracks reaching max holes |         46 |         46 |
| Seeds with more than one branch   |          0 |          0 |
| Tracks failing second CKF         |          0 |          0 |
| Stopped tracks below pT cut       |          8 |          8 |
| Stopped tracks above max eta      |          0 |          0 |
|-----------------------------------|------------|------------|
ActsConversionTrackFindingAlg                                     INFO Ratios
|------------------------------------------|------------|------------|
|                                          | SSS        | ALL        |
|------------------------------------------|------------|------------|
| failed / seeds                           |   0.760563 |   0.760563 |
| duplication / seeds                      |          0 |          0 |
| Rejected refined params / seeds          |          0 |          0 |
| selected / CKF tracks                    |          0 |          0 |
| selected tracks / used seeds             |          0 |          0 |
| branched tracks / used seeds             |          0 |          0 |
| no 2nd CKF / CKF tracks                  |          0 |          0 |
|------------------------------------------|------------|------------|
| selected / CKF tracks           0.0- 0.5 |          0 |          0 |
|                                 0.5- 1.0 |          0 |          0 |
|                                 1.0- 1.5 |          0 |          0 |
|                                 1.5- 2.0 |          0 |          0 |
|                                 2.0- 2.5 |          0 |          0 |
|                                 2.5- 3.0 |          0 |          0 |
|                                 3.0- 3.5 |          0 |          0 |
|                                 3.5-+inf |          0 |          0 |
|------------------------------------------|------------|------------|
ActsConversionPrdAssociationAlg                                   INFO Prd Map statistics
|-----------------------|------------|
| N. Tracks             |          0 |
| N. Pixel Measurements |          0 |
| N. Strip Measurements |          0 |
| N. Hgtd Measurements  |          0 |
|-----------------------|------------|
ActsLowPtPixelClusterPreparationAlg                               INFO Data Prep statistics
|---------|------------|
| Inputs  |    1165578 |
| Outputs |    1063058 |
|---------|------------|
ActsLowPtStripClusterPreparationAlg                               INFO Data Prep statistics
|---------|------------|
| Inputs  |    1081478 |
| Outputs |    1040599 |
|---------|------------|
ActsLowPtHgtdClusterPreparationAlg                                INFO Data Prep statistics
|---------|------------|
| Inputs  |     341404 |
| Outputs |     341380 |
|---------|------------|
ActsLowPtPixelSpacePointPreparationAlg                            INFO Data Prep statistics
|---------|------------|
| Inputs  |    1165578 |
| Outputs |    1063058 |
|---------|------------|
ActsLowPtStripSpacePointPreparationAlg                            INFO Data Prep statistics
|---------|------------|
| Inputs  |     325456 |
| Outputs |     303131 |
|---------|------------|
ActsLowPtStripOverlapSpacePointPreparationAlg                     INFO Data Prep statistics
|---------|------------|
| Inputs  |      94491 |
| Outputs |      88005 |
|---------|------------|
ActsLowPtPixelSeedingAlg                                          INFO Seed statistics
|---------------------|------------|
| Spacepoints         |    1063058 |
| Seeds               |      46845 |
| No track parameters |          0 |
|---------------------|------------|
ActsLowPtStripSeedingAlg                                          INFO Seed statistics
|---------------------|------------|
| Spacepoints         |     391136 |
| Seeds               |       9158 |
| No track parameters |          0 |
|---------------------|------------|
ActsLowPtTrackFindingAlg                                          INFO statistics
|-----------------------------------|------------|------------|------------|
|                           All eta | PPP        | SSS        | ALL        |
|-----------------------------------|------------|------------|------------|
| Input seeds                       |      46845 |       9158 |      56003 |
| No track parameters               |          0 |          0 |          0 |
| Used   seeds                      |      46036 |       8833 |      54869 |
| Cannot find track                 |      44888 |       7109 |      51997 |
| Duplicate seeds                   |        809 |        325 |       1134 |
| CKF tracks                        |       1148 |       1724 |       2872 |
| Rejected refined parameters       |          0 |          0 |          0 |
| selected tracks                   |        620 |         44 |        664 |
| Stopped tracks reaching max holes |      44447 |       7066 |      51513 |
| Seeds with more than one branch   |          0 |          0 |          0 |
| Tracks failing second CKF         |          0 |         71 |         71 |
| Stopped tracks below pT cut       |        441 |         43 |        484 |
| Stopped tracks above max eta      |          0 |          0 |          0 |
|-----------------------------------|------------|------------|------------|
ActsLowPtTrackFindingAlg                                          INFO Ratios
|------------------------------------------|------------|------------|------------|
|                                          | PPP        | SSS        | ALL        |
|------------------------------------------|------------|------------|------------|
| failed / seeds                           |   0.958224 |   0.776261 |   0.928468 |
| duplication / seeds                      |  0.0172697 |  0.0354881 |  0.0202489 |
| Rejected refined params / seeds          |          0 |          0 |          0 |
| selected / CKF tracks                    |    0.54007 |   0.025522 |   0.231198 |
| selected tracks / used seeds             |  0.0134677 | 0.00498132 |  0.0121016 |
| branched tracks / used seeds             |          0 |          0 |          0 |
| no 2nd CKF / CKF tracks                  |          0 |  0.0411833 |  0.0247214 |
|------------------------------------------|------------|------------|------------|
| selected / CKF tracks           0.0- 0.5 |   0.833333 |          0 |       0.36 |
|                                 0.5- 1.0 |   0.965909 |  0.0215827 |   0.387665 |
|                                 1.0- 1.5 |   0.948905 |  0.0701754 |   0.461039 |
|                                 1.5- 2.0 |   0.923077 |  0.0409712 |   0.332317 |
|                                 2.0- 2.5 |  0.0657895 | 0.00326797 |  0.0101744 |
|                                 2.5- 3.0 |  0.0130435 |          0 |   0.012987 |
|                                 3.0- 3.5 |  0.0185185 |          0 |  0.0185185 |
|                                 3.5-+inf |  0.0657895 |          0 |  0.0657895 |
|------------------------------------------|------------|------------|------------|
ActsLowPtPrdAssociationAlg                                        INFO Prd Map statistics
|-----------------------|------------|
| N. Tracks             |        507 |
| N. Pixel Measurements |       3831 |
| N. Strip Measurements |       4199 |
| N. Hgtd Measurements  |          0 |
|-----------------------|------------|
