// emacs: this is -*- c++ -*-

#define ITk

#include "TIDAdata_cuts-offline.dat"

VertexSelection    = 0;
VertexSelectionRec = 0;




//refChain = "Truth";
refChain = "Offline";
//refChain = "Electrons";
//refChain = "Muons";
//refChain = "Taus";


#define VTXANALYSIS

MinVertices = 0;


#include "TIDAdata-chains-run3.dat"


InitialiseFirstEvent = 1;

outputFile = "data-output.root";
DataFiles = { "TrkNtuple-0000.root"};
//DataSets = {"./"}


#include "TIDAbeam.dat"
